%YAML 1.1
%TAG !u! tag:unity3d.com,2011:
--- !u!74 &7400000
AnimationClip:
  m_ObjectHideFlags: 0
  m_CorrespondingSourceObject: {fileID: 0}
  m_PrefabInstance: {fileID: 0}
  m_PrefabAsset: {fileID: 0}
  m_Name: Rex_run
  serializedVersion: 6
  m_Legacy: 0
  m_Compressed: 0
  m_UseHighQualityCurve: 1
  m_RotationCurves: []
  m_CompressedRotationCurves: []
  m_EulerCurves: []
  m_PositionCurves: []
  m_ScaleCurves: []
  m_FloatCurves: []
  m_PPtrCurves:
  - curve:
    - time: 0
      value: {fileID: 21300000, guid: 3eeb489ff2b9e39439a3f81cb74d5f90, type: 3}
    - time: 0.083333336
      value: {fileID: 21300000, guid: cd369c0430eabd84cad9c9a8086081e0, type: 3}
    - time: 0.16666667
      value: {fileID: 21300000, guid: ca09f0bca3cdf8d44b723d4af34e30f9, type: 3}
    - time: 0.25
      value: {fileID: 21300000, guid: 386e55353ad612248b41fa0e2fb49684, type: 3}
    - time: 0.33333334
      value: {fileID: 21300000, guid: 9f6e9ca634cefa14e9c714585441039b, type: 3}
    - time: 0.41666666
      value: {fileID: 21300000, guid: 4d77c2f4a4b5a3a4fa83d2665c6eaf08, type: 3}
    - time: 0.5
      value: {fileID: 21300000, guid: e931283fa8d3f6a45b1888dc67c021a5, type: 3}
    - time: 0.5833333
      value: {fileID: 21300000, guid: f4a5c8da58fe0d442b7f13abad19e8c3, type: 3}
    attribute: m_Sprite
    path: 
    classID: 212
    script: {fileID: 0}
  m_SampleRate: 12
  m_WrapMode: 0
  m_Bounds:
    m_Center: {x: 0, y: 0, z: 0}
    m_Extent: {x: 0, y: 0, z: 0}
  m_ClipBindingConstant:
    genericBindings:
    - serializedVersion: 2
      path: 0
      attribute: 0
      script: {fileID: 0}
      typeID: 212
      customType: 23
      isPPtrCurve: 1
    pptrCurveMapping:
    - {fileID: 21300000, guid: 3eeb489ff2b9e39439a3f81cb74d5f90, type: 3}
    - {fileID: 21300000, guid: cd369c0430eabd84cad9c9a8086081e0, type: 3}
    - {fileID: 21300000, guid: ca09f0bca3cdf8d44b723d4af34e30f9, type: 3}
    - {fileID: 21300000, guid: 386e55353ad612248b41fa0e2fb49684, type: 3}
    - {fileID: 21300000, guid: 9f6e9ca634cefa14e9c714585441039b, type: 3}
    - {fileID: 21300000, guid: 4d77c2f4a4b5a3a4fa83d2665c6eaf08, type: 3}
    - {fileID: 21300000, guid: e931283fa8d3f6a45b1888dc67c021a5, type: 3}
    - {fileID: 21300000, guid: f4a5c8da58fe0d442b7f13abad19e8c3, type: 3}
  m_AnimationClipSettings:
    serializedVersion: 2
    m_AdditiveReferencePoseClip: {fileID: 0}
    m_AdditiveReferencePoseTime: 0
    m_StartTime: 0
    m_StopTime: 0.6666666
    m_OrientationOffsetY: 0
    m_Level: 0
    m_CycleOffset: 0
    m_HasAdditiveReferencePose: 0
    m_LoopTime: 1
    m_LoopBlend: 0
    m_LoopBlendOrientation: 0
    m_LoopBlendPositionY: 0
    m_LoopBlendPositionXZ: 0
    m_KeepOriginalOrientation: 0
    m_KeepOriginalPositionY: 1
    m_KeepOriginalPositionXZ: 0
    m_HeightFromFeet: 0
    m_Mirror: 0
  m_EditorCurves: []
  m_EulerEditorCurves: []
  m_HasGenericRootTransform: 0
  m_HasMotionFloatCurves: 0
  m_Events: []
